@startuml

title Create a MR


start

: Verify difference on GitLab.com;
note right: Tag an issue number (""#xxx"")

if (Any surplus changes?) then (yes)
    : Ask your supervisor first;
    note: To merge ""master"" into ""dev""
else (no)
endif

if (Any migration added or merge conflict?) then (yes)
    : Merge ""dev"" into your branch;

    if (Any migration added?) then (yes)
        : Verify that your migration is not conflict with others;

        if (Conflict?) then (yes)
            : Fix your migration by increase the migration number;
            note left
                <b>Do not</b> commit any other change
                including lint fix, typo fix
                except migration conflict resolution
            endnote
        else (no)
        endif
    endif

    if (Any merge conflict?) then (yes)
        : Fix merge conflict(s);
        note left
            <b>Do not</b> commit any other change
            including lint fix, typo fix
            except merge conflict resolution
        endnote
    else (no)
    endif
else (no)
endif

: Create MR;

stop

@enduml