@startuml

title Deployment Flow


start

: Check out ""master"";

repeat
    : Merge to-be-deployed branch into ""master"";

    if (Any conflict?) then (yes)
        : Fix it;
    else (no)
    endif
repeat while (Any other to-be-deployed branch?) is (yes) not (no)

if (Any migration added?) then (yes)
    : Verify that your migration is not conflict with others;

    if (Conflict?) then (yes)
        : Fix migration conflict;
    else (no)
    endif
endif

: Push ""master"" to origin;

fork
    if (Deploying production?) then (yes)
        : Create new tag from ""master"";

        : Push tag to origin;
    else (no)
    endif

fork again
    : Checkout ""dev"";

    : Merge ""master"" into ""dev"";
    note
        This usually have
        no change at all
    endnote

    : Push ""dev"" to origin;

fork again
    : Delete all to-be-deployed branch(es);

end fork

stop

@enduml